﻿{
  "configurations": [
    {
      "name": "x64-Debug",
      "generator": "Ninja",
      "configurationType": "Debug",
      "inheritEnvironments": [ "msvc_x64_x64" ],
      "buildRoot": "${projectDir}\\out\\build\\${name}",
      "installRoot": "${projectDir}\\out\\install\\${name}",
      "cmakeCommandArgs": "",
      "buildCommandArgs": "",
      "ctestCommandArgs": "",
      "variables": [
        {
          "name": "VCPKG_MANIFEST_MODE",
          "value": "True",
          "type": "BOOL"
        },
        {
          "name": "VCPKG_MANIFEST_INSTALL",
          "value": "True",
          "type": "BOOL"
        },
        {
          "name": "VCPKG_MANIFEST_DIR",
          "value": "${projectDir}",
          "type": "PATH"
        },
        {
          "name": "VCPKG_TARGET_TRIPLET",
          "value": "x64-windows"
        },
        {
          "name": "VCPKG_FEATURE_FLAGS",
          "value": "versions"
        }
      ],
      "cmakeToolchain": "${projectDir}\\..\\vcpkg\\scripts\\buildsystems\\vcpkg.cmake"
    }
  ]
}